<?xml version="1.0" encoding="utf-8"?>
<!-- Generator: Adobe Illustrator 18.0.0, SVG Export Plug-In . SVG Version: 6.00 Build 0)  -->
<!DOCTYPE svg PUBLIC "-//W3C//DTD SVG 1.1//EN" "http://www.w3.org/Graphics/SVG/1.1/DTD/svg11.dtd">
<svg version="1.1" id="Layer_1" xmlns="http://www.w3.org/2000/svg" xmlns:xlink="http://www.w3.org/1999/xlink" x="0px" y="0px"
	 viewBox="0 0 64 134.7" enable-background="new 0 0 64 134.7" xml:space="preserve">
<g>
	<path stroke="#FFFFFF" stroke-width="1.4" stroke-miterlimit="10" d="M17.5,109.1h-4.3v-2.3h4.3V109.1L17.5,109.1z M17.5,127.8
		c0,1.2-1,2.1-2.1,2.1c-1.2,0-2.1-1-2.1-2.1v-14.6h4.3V127.8L17.5,127.8z M17.5,100.5h-4.1v2.4H9.2v25c0,3.4,2.8,6.2,6.2,6.2
		c3.4,0,6.2-2.8,6.2-6.2v-25h-4V100.5L17.5,100.5z"/>
	<path stroke="#FFFFFF" stroke-width="1.4" stroke-miterlimit="10" d="M25.6,83.9c-0.9,4.9-5.1,8.4-10.3,8.4S6,88.8,5.1,83.9H25.6
		L25.6,83.9z M11.7,73.6c-1.5,0-2.6-1.2-2.6-2.6v-3.1c0-1.5,1.2-2.6,2.6-2.6H19c1.5,0,2.6,1.2,2.6,2.6V71c0,1.5-1.2,2.6-2.6,2.6
		H11.7L11.7,73.6z M9.1,58.8h12.6V61H9.1V58.8L9.1,58.8z M11.7,46.6c-1.5,0-2.6-1.2-2.6-2.6v-3.1c0-1.5,1.2-2.6,2.6-2.6H19
		c1.5,0,2.6,1.2,2.6,2.6v3.1c0,1.5-1.2,2.6-2.6,2.6H11.7L11.7,46.6z M9.1,31.9h12.6v2.2H19h-7.3H9.1L9.1,31.9L9.1,31.9L9.1,31.9z
		 M11.1,17.3c0-2.3,1.9-4.2,4.2-4.2c2.3,0,4.2,1.9,4.2,4.2s-1.9,4.2-4.2,4.2C13,21.6,11.1,19.7,11.1,17.3L11.1,17.3z M17.5,77.7H19
		c3.7,0,6.7-3,6.7-6.7v-3.1c0-1.2-0.3-2.4-0.9-3.4c0.5-0.4,0.9-1.1,0.9-1.9v-5.6c0-1.3-1.1-2.4-2.4-2.4h-5.8v-4.1H19
		c3.7,0,6.7-3,6.7-6.7v-3.1c0-1.2-0.3-2.3-0.8-3.2c0.5-0.4,0.8-1.1,0.8-1.8v-5.6c0-1.3-1.1-2.4-2.4-2.4h-5.8v-2.5
		c3.5-0.9,6.1-4.2,6.1-8s-2.6-7-6.1-8V0.7h-4.1v8.6c-3.6,0.9-6.4,4.1-6.4,8.1c0,3.9,2.7,7.2,6.4,8.1v2.4H7.4c-1.3,0-2.4,1.1-2.4,2.4
		v5.6c0,0.7,0.3,1.4,0.8,1.8c-0.5,1-0.8,2.1-0.8,3.2v3.1c0,3.7,3,6.7,6.7,6.7h1.7v4.1H7.4c-1.3,0-2.4,1.1-2.4,2.4v5.6
		c0,0.8,0.4,1.4,0.9,1.9c-0.6,1-0.9,2.1-0.9,3.4V71c0,3.7,3,6.7,6.7,6.7h1.7v2.1H0.7v2c0,7.5,5.5,13.5,12.7,14.4v2.3h4.1v-2.3
		c3.1-0.5,5.9-1.8,8.1-4c2.7-2.7,4.3-6.4,4.3-10.3v-2H17.5L17.5,77.7L17.5,77.7L17.5,77.7z"/>
	<path stroke="#FFFFFF" stroke-width="1.4" stroke-miterlimit="10" d="M50.8,106.9v2.3h-4.3v-2.3H50.8L50.8,106.9z M50.8,127.8
		c0,1.2-1,2.1-2.1,2.1c-1.2,0-2.1-1-2.1-2.1v-14.6h4.3V127.8L50.8,127.8z M50.6,100.5h-4.1v2.4h-4v25c0,3.4,2.8,6.2,6.2,6.2
		c3.4,0,6.2-2.8,6.2-6.2v-25h-4.3V100.5L50.6,100.5z"/>
	<path stroke="#FFFFFF" stroke-width="1.4" stroke-miterlimit="10" d="M48.7,92.4c-5.2,0-9.4-3.6-10.3-8.4H59
		C58,88.8,53.9,92.4,48.7,92.4L48.7,92.4z M45,73.6c-1.5,0-2.6-1.2-2.6-2.6v-3.1c0-1.5,1.2-2.6,2.6-2.6h7.3c1.5,0,2.6,1.2,2.6,2.6
		V71c0,1.5-1.2,2.6-2.6,2.6H45L45,73.6z M42.4,58.8H55V61H42.4V58.8L42.4,58.8z M45,46.6c-1.5,0-2.6-1.2-2.6-2.6v-3.1
		c0-1.5,1.2-2.6,2.6-2.6h7.3c1.5,0,2.6,1.2,2.6,2.6v3.1c0,1.5-1.2,2.6-2.6,2.6H45L45,46.6z M42.4,31.9H55v2.2h-2.6H45h-2.6V31.9
		L42.4,31.9z M44.5,17.3c0-2.3,1.9-4.2,4.2-4.2c2.3,0,4.2,1.9,4.2,4.2s-1.9,4.2-4.2,4.2C46.4,21.6,44.5,19.7,44.5,17.3L44.5,17.3z
		 M50.6,79.8v-2.1h1.8c3.7,0,6.7-3,6.7-6.7v-3.1c0-1.2-0.3-2.4-0.9-3.4c0.5-0.4,0.9-1.1,0.9-1.9v-5.6c0-1.3-1.1-2.4-2.4-2.4h-6.1
		v-4.1h1.8c3.7,0,6.7-3,6.7-6.7v-3.1c0-1.2-0.3-2.3-0.8-3.2c0.5-0.4,0.8-1.1,0.8-1.8v-5.6c0-1.3-1.1-2.4-2.4-2.4h-6.1v-2.4
		c3.7-0.9,6.4-4.1,6.4-8.1c0-3.9-2.7-7.2-6.4-8.1V0.7h-4.1v8.6c-3.5,1-6.1,4.2-6.1,8s2.6,7,6.1,8v2.5h-5.8c-1.3,0-2.4,1.1-2.4,2.4
		v5.6c0,0.7,0.3,1.4,0.8,1.8c-0.5,1-0.8,2.1-0.8,3.2v3.1c0,3.7,3,6.7,6.7,6.7h1.5v4.1h-5.8c-1.3,0-2.4,1.1-2.4,2.4v5.6
		c0,0.8,0.4,1.4,0.9,1.9c-0.6,1-0.9,2.1-0.9,3.4V71c0,3.7,3,6.7,6.7,6.7h1.5v2.1H34v2c0,7.4,5.4,13.4,12.5,14.4v2.3h4.1v-2.3
		c3.2-0.4,6.1-1.8,8.4-4.1c2.7-2.7,4.3-6.4,4.3-10.3v-2H50.6L50.6,79.8z"/>
</g>
</svg>
