<?xml version="1.0" encoding="utf-8"?>
<!-- Generator: Adobe Illustrator 18.0.0, SVG Export Plug-In . SVG Version: 6.00 Build 0)  -->
<!DOCTYPE svg PUBLIC "-//W3C//DTD SVG 1.1//EN" "http://www.w3.org/Graphics/SVG/1.1/DTD/svg11.dtd">
<svg version="1.1" id="Layer_1" xmlns="http://www.w3.org/2000/svg" xmlns:xlink="http://www.w3.org/1999/xlink" x="0px" y="0px"
	 viewBox="0 0 121.3 123.4" enable-background="new 0 0 121.3 123.4" xml:space="preserve">
<g>
	<path stroke="#FFFFFF" stroke-width="1.5" stroke-miterlimit="10" d="M8.9,95.3h23.9c3,0,5.6-1.5,7.1-4.1c1.4-2.5,1.4-5.5,0-8
		L28,62.7c-1.5-2.5-4.1-4-7.1-4c-2.9,0-5.6,1.5-7.1,4l-12,20.4c-1.5,2.5-1.5,5.5,0,8C3.3,93.8,6,95.3,8.9,95.3z M5.5,85.3l12-20.4
		c0.7-1.2,2-2,3.4-2c1.4,0,2.7,0.7,3.4,2l12,20.4c0.7,1.2,0.7,2.6,0,3.8c-0.7,1.2-2,2-3.5,2H8.9c-1.4,0-2.8-0.7-3.5-2
		C4.8,87.9,4.8,86.5,5.5,85.3z"/>
	<path stroke="#FFFFFF" stroke-width="1.5" stroke-miterlimit="10" d="M2.9,112.1h8.4v10.5h12.6v-10.5h75.6v10.5h12.6v-10.5h8.4
		V97.4H2.9V112.1z M19.7,118.4h-4.2v-6.3h4.2V118.4z M107.9,118.4h-4.2v-6.3h4.2V118.4z M7.1,101.6h109.3v6.3h-4.2H99.5H23.9H11.3
		H7.1V101.6z"/>
	<path stroke="#FFFFFF" stroke-width="1.5" stroke-miterlimit="10" d="M42.8,74.3v2.1c0,10.4,8.5,18.9,18.9,18.9s18.9-8.5,18.9-18.9
		v-2.1c0-10.4-8.5-18.9-18.9-18.9S42.8,63.9,42.8,74.3z M76.4,74.3v2.1c0,8.1-6.6,14.7-14.7,14.7S47,84.5,47,76.4v-2.1
		c0-8.1,6.6-14.7,14.7-14.7S76.4,66.2,76.4,74.3z"/>
	<path stroke="#FFFFFF" stroke-width="1.5" stroke-miterlimit="10" d="M114.2,55.4H89c-3.5,0-6.3,2.8-6.3,6.3V89
		c0,3.5,2.8,6.3,6.3,6.3h25.2c3.5,0,6.3-2.8,6.3-6.3V61.7C120.5,58.2,117.7,55.4,114.2,55.4z M116.3,89c0,1.2-0.9,2.1-2.1,2.1H89
		c-1.2,0-2.1-0.9-2.1-2.1V61.7c0-1.2,0.9-2.1,2.1-2.1h25.2c1.2,0,2.1,0.9,2.1,2.1V89z"/>
	<path stroke="#FFFFFF" stroke-width="1.5" stroke-miterlimit="10" d="M17.3,86.9h7.2c1.4,0,2.7-0.8,3.4-2c0.7-1.2,0.7-2.5,0.1-3.7
		l-3.6-9.1l-0.1-0.3c-0.7-1.2-2-1.9-3.4-1.9s-2.7,0.7-3.4,1.9l-3.7,9.4c-0.6,1.2-0.6,2.6,0.1,3.7C14.6,86.2,15.9,86.9,17.3,86.9z
		 M20.9,74.6l3.2,8.1h-6.3L20.9,74.6z"/>
	<path stroke="#FFFFFF" stroke-width="1.5" stroke-miterlimit="10" d="M51.2,75.4c0,6.4,4.7,11.6,10.5,11.6s10.5-5.2,10.5-11.6
		s-4.7-11.6-10.5-11.6S51.2,69,51.2,75.4z M68,75.4c0,4.1-2.8,7.4-6.3,7.4c-3.5,0-6.3-3.3-6.3-7.4s2.8-7.4,6.3-7.4
		C65.2,68,68,71.3,68,75.4z"/>
	<ellipse stroke="#FFFFFF" stroke-width="1.5" stroke-miterlimit="10" cx="61.7" cy="75.4" rx="4.2" ry="3.2"/>
	<path stroke="#FFFFFF" stroke-width="1.5" stroke-miterlimit="10" d="M110,61.7H93.2c-2.3,0-4.2,1.9-4.2,4.2v18.9
		c0,2.3,1.9,4.2,4.2,4.2H110c2.3,0,4.2-1.9,4.2-4.2V65.9C114.2,63.6,112.3,61.7,110,61.7z M110,84.8H93.2V65.9H110V84.8z"/>
	<path stroke="#FFFFFF" stroke-width="1.5" stroke-miterlimit="10" d="M97.4,74.3c0.5,0,1.1-0.2,1.5-0.6l2.1-2.1
		c0.8-0.8,0.8-2.1,0-3c-0.8-0.8-2.1-0.8-3,0l-2.1,2.1c-0.8,0.8-0.8,2.1,0,3C96.3,74.1,96.9,74.3,97.4,74.3z"/>
	<path stroke="#FFFFFF" stroke-width="1.5" stroke-miterlimit="10" d="M98,82.1c0.4,0.4,1,0.6,1.5,0.6s1.1-0.2,1.5-0.6
		c0.8-0.8,0.8-2.1,0-3L98.9,77c-0.8-0.8-2.1-0.8-3,0s-0.8,2.1,0,3L98,82.1z"/>
	<path stroke="#FFFFFF" stroke-width="1.5" stroke-miterlimit="10" d="M102.2,77.9c0.4,0.4,1,0.6,1.5,0.6s1.1-0.2,1.5-0.6l2.1-2.1
		c0.8-0.8,0.8-2.1,0-3s-2.1-0.8-3,0l-2.1,2.1C101.4,75.7,101.4,77.1,102.2,77.9z"/>
	<path stroke="#FFFFFF" stroke-width="1.5" stroke-miterlimit="10" d="M29.4,49.1c0.2,0,0.4,0,0.6-0.1l9.1-2.8l-8,5.3
		c-1,0.7-1.2,2-0.6,2.9c0.4,0.6,1.1,0.9,1.7,0.9c0.4,0,0.8-0.1,1.2-0.4l19.6-13.1l63.9-19.5c1.1-0.3,1.7-1.5,1.4-2.6
		c-0.3-1.1-1.5-1.7-2.6-1.4L65.2,33.9l43.9-29.3c1-0.7,1.2-2,0.6-2.9c-0.7-1-2-1.2-2.9-0.6l-55.5,37L28.8,45
		c-1.1,0.3-1.7,1.5-1.4,2.6C27.6,48.5,28.5,49.1,29.4,49.1z"/>
</g>
</svg>
